Hands-on Workshop on Time Series Analysis and Forecasting using R: IPHACON 2024 - Exploratory Time Series Analysis
…
5 Time series decomposition

Decomposition methods

The additive decomposition is the most appropriate if the magnitude of the seasonal fluctuations, or the variation around the trend-cycle, does not vary with the level of the time series. When the variation in the seasonal pattern, or the variation around the trend-cycle, appears to be proportional to the level of the time series, then a multiplicative decomposition is more appropriate.

Time series data is decomposed into trend, seasonality and remainder components based on additive or multiplicative decomposition methods. If we assume an additive decomposition, then we can write \(y_t = S_t + T_t + R_t\) where \(y_t\) is the data, \(S_t\) is the seasonal component, \(T_t\) is the trend-cycle component, and \(R_t\) is the remainder component, all at period \(t\). Alternatively, a multiplicative decomposition would be written as \(y_t = S_t * T_t * R_t\).

df_diab |>
  model(stl = STL(TotalC)) |> 
  components()

# A dable: 204 x 7 [1M]
# Key:     .model [1]
# :        TotalC = trend + season_year + remainder
   .model    Month  TotalC    trend season_year remainder season_adjust
   <chr>     <mth>   <dbl>    <dbl>       <dbl>     <dbl>         <dbl>
 1 stl    1991 Jul 3526591 3270635.    -127065.   383021.      3653656.
 2 stl    1991 Aug 3180891 3310236.    -116422.   -12923.      3297313.
 3 stl    1991 Sep 3252221 3349837.     -87179.   -10437.      3339400.
 4 stl    1991 Oct 3611003 3389438.     134369.    87196.      3476634.
 5 stl    1991 Nov 3565869 3429518.     254173.  -117822.      3311696.
 6 stl    1991 Dec 4306371 3469598.    1640931.  -804158.      2665440.
 7 stl    1992 Jan 5088335 3509677.    1811795.  -233137.      3276540.
 8 stl    1992 Feb 2814520 3549836.   -1143268.   407952.      3957788.
 9 stl    1992 Mar 2985811 3589994.    -704096.    99913.      3689907.
10 stl    1992 Apr 3204780 3630153.    -727385.   302012.      3932165.
# ℹ 194 more rows
…
